module client

go 1.17

require (
	github.com/gin-gonic/gin v1.8.1
	github.com/go-playground/validator/v10 v10.11.1
	github.com/go-redis/redis/v9 v9.0.0-rc.1
	github.com/joho/godotenv v1.4.0
	github.com/pkg/errors v0.9.1
	github.com/rs/zerolog v1.28.0
	github.com/segmentio/kafka-go v0.4.38
	github.com/spf13/viper v1.14.0
	google.golang.org/grpc v1.50.1
	google.golang.org/protobuf v1.28.1
)

require (
	github.com/cespare/xxhash/v2 v2.1.2 // indirect
	github.com/dgryski/go-rendezvous v0.0.0-20200823014737-9f7001d12a5f // indirect
	github.com/fsnotify/fsnotify v1.6.0 // indirect
	github.com/gin-contrib/sse v0.1.0 // indirect
	github.com/go-playground/locales v0.14.0 // indirect
	github.com/go-playground/universal-translator v0.18.0 // indirect
	github.com/goccy/go-json v0.9.7 // indirect
	github.com/golang/protobuf v1.5.2 // indirect
	github.com/hashicorp/hcl v1.0.0 // indirect
	github.com/json-iterator/go v1.1.12 // indirect
	github.com/klauspost/compress v1.15.9 // indirect
	github.com/leodido/go-urn v1.2.1 // indirect
	github.com/magiconair/properties v1.8.6 // indirect
	github.com/mattn/go-colorable v0.1.12 // indirect
	github.com/mattn/go-isatty v0.0.14 // indirect
	github.com/mitchellh/mapstructure v1.5.0 // indirect
	github.com/modern-go/concurrent v0.0.0-20180306012644-bacd9c7ef1dd // indirect
	github.com/modern-go/reflect2 v1.0.2 // indirect
	github.com/pelletier/go-toml v1.9.5 // indirect
	github.com/pelletier/go-toml/v2 v2.0.5 // indirect
	github.com/pierrec/lz4/v4 v4.1.15 // indirect
	github.com/spf13/afero v1.9.2 // indirect
	github.com/spf13/cast v1.5.0 // indirect
	github.com/spf13/jwalterweatherman v1.1.0 // indirect
	github.com/spf13/pflag v1.0.5 // indirect
	github.com/subosito/gotenv v1.4.1 // indirect
	github.com/ugorji/go/codec v1.2.7 // indirect
	golang.org/x/crypto v0.0.0-20220622213112-05595931fe9d // indirect
	golang.org/x/net v0.0.0-20221014081412-f15817d10f9b // indirect
	golang.org/x/sys v0.0.0-20220908164124-27713097b956 // indirect
	golang.org/x/text v0.4.0 // indirect
	google.golang.org/genproto v0.0.0-20221024183307-1bc688fe9f3e // indirect
	gopkg.in/ini.v1 v1.67.0 // indirect
	gopkg.in/yaml.v2 v2.4.0 // indirect
	gopkg.in/yaml.v3 v3.0.1 // indirect
)
